Archivo Tarea 1/testbench.vcd
$date
	Fri Sep 16 14:30:52 2022
$end
$version
	Icarus Verilog
$end
$timescale
	1ns
$end
$scope module tb $end
$var wire 2 ! modo [1:0] $end
$var wire 1 " enb $end
$var wire 1 # clk $end
$var wire 1 $ RCO $end
$var wire 4 % Q [3:0] $end
$var wire 4 & D [3:0] $end
$scope module DUT $end
$var wire 1 $ RCO $end
$var wire 4 ' Q [3:0] $end
$var wire 2 ( MODO [1:0] $end
$var wire 1 " ENB $end
$var wire 4 ) D [3:0] $end
$var wire 1 # CLK $end
$var reg 4 * d_In [3:0] $end
$var reg 1 + d_Out $end
$scope module DFF_0 $end
$var wire 1 , D $end
$var wire 1 " EN $end
$var wire 1 # CLK $end
$var reg 1 - Q $end
$upscope $end
$scope module DFF_1 $end
$var wire 1 . D $end
$var wire 1 " EN $end
$var wire 1 # CLK $end
$var reg 1 / Q $end
$upscope $end
$scope module DFF_1bit $end
$var wire 1 + D $end
$var wire 1 " EN $end
$var wire 1 # CLK $end
$var reg 1 $ Q $end
$upscope $end
$scope module DFF_2 $end
$var wire 1 0 D $end
$var wire 1 " EN $end
$var wire 1 # CLK $end
$var reg 1 1 Q $end
$upscope $end
$scope module DFF_3 $end
$var wire 1 2 D $end
$var wire 1 " EN $end
$var wire 1 # CLK $end
$var reg 1 3 Q $end
$upscope $end
$upscope $end
$scope module test $end
$var wire 4 4 Q [3:0] $end
$var wire 1 $ RCO $end
$var reg 1 # CLK $end
$var reg 4 5 D [3:0] $end
$var reg 1 " ENB $end
$var reg 2 6 MODO [1:0] $end
$upscope $end
$upscope $end
$scope module tb16 $end
$var wire 2 7 modo [1:0] $end
$var wire 1 8 enb $end
$var wire 1 9 clk $end
$var wire 1 : RCO164 $end
$var wire 1 ; RCO163 $end
$var wire 1 < RCO162 $end
$var wire 1 = RCO $end
$var wire 16 > Q [15:0] $end
$var wire 16 ? D [15:0] $end
$scope module DUT16 $end
$var wire 1 @ clk2 $end
$var wire 1 A clk3 $end
$var wire 1 B clk4 $end
$var wire 16 C salida [15:0] $end
$var wire 1 D modo114 $end
$var wire 1 E modo113 $end
$var wire 1 F modo11 $end
$var wire 1 G modo00 $end
$var wire 16 H entrada [15:0] $end
$var wire 1 : RCO164 $end
$var wire 1 ; RCO163 $end
$var wire 1 < RCO162 $end
$var wire 1 = RCO $end
$var wire 2 I MODO [1:0] $end
$var wire 1 8 ENB $end
$var wire 1 9 CLK $end
$var reg 1 J d_Out1 $end
$var reg 1 K d_Out2 $end
$var reg 1 L d_Out3 $end
$scope module contador1 $end
$var wire 4 M D [3:0] $end
$var wire 1 = RCO $end
$var wire 4 N Q [3:0] $end
$var wire 2 O MODO [1:0] $end
$var wire 1 8 ENB $end
$var wire 1 9 CLK $end
$var reg 4 P d_In [3:0] $end
$var reg 1 Q d_Out $end
$scope module DFF_0 $end
$var wire 1 R D $end
$var wire 1 8 EN $end
$var wire 1 9 CLK $end
$var reg 1 S Q $end
$upscope $end
$scope module DFF_1 $end
$var wire 1 T D $end
$var wire 1 8 EN $end
$var wire 1 9 CLK $end
$var reg 1 U Q $end
$upscope $end
$scope module DFF_1bit $end
$var wire 1 Q D $end
$var wire 1 8 EN $end
$var wire 1 9 CLK $end
$var reg 1 = Q $end
$upscope $end
$scope module DFF_2 $end
$var wire 1 V D $end
$var wire 1 8 EN $end
$var wire 1 9 CLK $end
$var reg 1 W Q $end
$upscope $end
$scope module DFF_3 $end
$var wire 1 X D $end
$var wire 1 8 EN $end
$var wire 1 9 CLK $end
$var reg 1 Y Q $end
$upscope $end
$upscope $end
$scope module contador2 $end
$var wire 1 @ CLK $end
$var wire 4 Z D [3:0] $end
$var wire 1 < RCO $end
$var wire 4 [ Q [3:0] $end
$var wire 2 \ MODO [1:0] $end
$var wire 1 8 ENB $end
$var reg 4 ] d_In [3:0] $end
$var reg 1 ^ d_Out $end
$scope module DFF_0 $end
$var wire 1 @ CLK $end
$var wire 1 _ D $end
$var wire 1 8 EN $end
$var reg 1 ` Q $end
$upscope $end
$scope module DFF_1 $end
$var wire 1 @ CLK $end
$var wire 1 a D $end
$var wire 1 8 EN $end
$var reg 1 b Q $end
$upscope $end
$scope module DFF_1bit $end
$var wire 1 @ CLK $end
$var wire 1 ^ D $end
$var wire 1 8 EN $end
$var reg 1 < Q $end
$upscope $end
$scope module DFF_2 $end
$var wire 1 @ CLK $end
$var wire 1 c D $end
$var wire 1 8 EN $end
$var reg 1 d Q $end
$upscope $end
$scope module DFF_3 $end
$var wire 1 @ CLK $end
$var wire 1 e D $end
$var wire 1 8 EN $end
$var reg 1 f Q $end
$upscope $end
$upscope $end
$scope module contador3 $end
$var wire 1 A CLK $end
$var wire 4 g D [3:0] $end
$var wire 1 ; RCO $end
$var wire 4 h Q [3:0] $end
$var wire 2 i MODO [1:0] $end
$var wire 1 8 ENB $end
$var reg 4 j d_In [3:0] $end
$var reg 1 k d_Out $end
$scope module DFF_0 $end
$var wire 1 A CLK $end
$var wire 1 l D $end
$var wire 1 8 EN $end
$var reg 1 m Q $end
$upscope $end
$scope module DFF_1 $end
$var wire 1 A CLK $end
$var wire 1 n D $end
$var wire 1 8 EN $end
$var reg 1 o Q $end
$upscope $end
$scope module DFF_1bit $end
$var wire 1 A CLK $end
$var wire 1 k D $end
$var wire 1 8 EN $end
$var reg 1 ; Q $end
$upscope $end
$scope module DFF_2 $end
$var wire 1 A CLK $end
$var wire 1 p D $end
$var wire 1 8 EN $end
$var reg 1 q Q $end
$upscope $end
$scope module DFF_3 $end
$var wire 1 A CLK $end
$var wire 1 r D $end
$var wire 1 8 EN $end
$var reg 1 s Q $end
$upscope $end
$upscope $end
$scope module contador4 $end
$var wire 1 B CLK $end
$var wire 4 t D [3:0] $end
$var wire 1 : RCO $end
$var wire 4 u Q [3:0] $end
$var wire 2 v MODO [1:0] $end
$var wire 1 8 ENB $end
$var reg 4 w d_In [3:0] $end
$var reg 1 x d_Out $end
$scope module DFF_0 $end
$var wire 1 B CLK $end
$var wire 1 y D $end
$var wire 1 8 EN $end
$var reg 1 z Q $end
$upscope $end
$scope module DFF_1 $end
$var wire 1 B CLK $end
$var wire 1 { D $end
$var wire 1 8 EN $end
$var reg 1 | Q $end
$upscope $end
$scope module DFF_1bit $end
$var wire 1 B CLK $end
$var wire 1 x D $end
$var wire 1 8 EN $end
$var reg 1 : Q $end
$upscope $end
$scope module DFF_2 $end
$var wire 1 B CLK $end
$var wire 1 } D $end
$var wire 1 8 EN $end
$var reg 1 ~ Q $end
$upscope $end
$scope module DFF_3 $end
$var wire 1 B CLK $end
$var wire 1 !" D $end
$var wire 1 8 EN $end
$var reg 1 "" Q $end
$upscope $end
$upscope $end
$upscope $end
$scope module test16 $end
$var wire 1 = RCO $end
$var wire 1 < RCO162 $end
$var wire 1 ; RCO163 $end
$var wire 1 : RCO164 $end
$var wire 16 #" salida [15:0] $end
$var reg 1 9 CLK $end
$var reg 1 8 ENB $end
$var reg 2 $" MODO [1:0] $end
$var reg 16 %" entrada [15:0] $end
$upscope $end
$upscope $end
$scope module tb $end
$scope module DUT $end
$scope module DFF_0 $end
$upscope $end
$scope module DFF_1 $end
$upscope $end
$scope module DFF_1bit $end
$upscope $end
$scope module DFF_2 $end
$upscope $end
$scope module DFF_3 $end
$upscope $end
$upscope $end
$scope module test $end
$upscope $end
$upscope $end
$scope module tb16 $end
$scope module DUT16 $end
$scope module contador1 $end
$scope module DFF_0 $end
$upscope $end
$scope module DFF_1 $end
$upscope $end
$scope module DFF_1bit $end
$upscope $end
$scope module DFF_2 $end
$upscope $end
$scope module DFF_3 $end
$upscope $end
$upscope $end
$scope module contador2 $end
$scope module DFF_0 $end
$upscope $end
$scope module DFF_1 $end
$upscope $end
$scope module DFF_1bit $end
$upscope $end
$scope module DFF_2 $end
$upscope $end
$scope module DFF_3 $end
$upscope $end
$upscope $end
$scope module contador3 $end
$scope module DFF_0 $end
$upscope $end
$scope module DFF_1 $end
$upscope $end
$scope module DFF_1bit $end
$upscope $end
$scope module DFF_2 $end
$upscope $end
$scope module DFF_3 $end
$upscope $end
$upscope $end
$scope module contador4 $end
$scope module DFF_0 $end
$upscope $end
$scope module DFF_1 $end
$upscope $end
$scope module DFF_1bit $end
$upscope $end
$scope module DFF_2 $end
$upscope $end
$scope module DFF_3 $end
$upscope $end
$upscope $end
$upscope $end
$scope module test16 $end
$upscope $end
$upscope $end
$enddefinitions $end
#0
$dumpvars
b0 %"
bx $"
bx #"
x""
0!"
x~
0}
x|
0{
xz
0y
xx
b0 w
bx v
bx u
b0 t
xs
0r
xq
0p
xo
0n
xm
0l
xk
b0 j
bx i
bx h
b0 g
xf
0e
xd
0c
xb
0a
x`
0_
x^
b0 ]
bx \
bx [
b0 Z
xY
0X
xW
0V
xU
0T
xS
0R
xQ
b0 P
bx O
bx N
b0 M
xL
xK
xJ
bx I
b0 H
xG
xF
xE
xD
bx C
xB
xA
x@
b0 ?
bx >
x=
x<
x;
x:
09
08
bx 7
bx 6
bx 5
bx 4
x3
02
x1
00
x/
0.
x-
0,
x+
b0 *
bx )
bx (
bx '
bx &
bx %
x$
0#
x"
bx !
$end
#1
0S
0U
0W
bx0000 >
bx0000 C
bx0000 #"
b0 N
0Y
0=
0-
0/
01
b0 %
b0 '
b0 4
03
0$
19
1#
#2
0B
0A
0@
0Q
0^
0k
0x
09
0#
1D
1E
0G
1F
b11 7
b11 I
b11 O
b11 \
b11 i
b11 v
b11 $"
18
#3
0z
0|
0~
b0 u
0""
0:
0m
0o
0q
b0 h
0s
0;
0`
0b
0d
b0 >
b0 C
b0 #"
b0 [
0f
0<
1B
1A
1@
19
1#
#4
0B
0A
0@
1R
1_
1l
1y
0L
0K
0J
b1 P
b1 ]
b1 j
b1 w
09
0#
0D
0E
1G
0F
b0 7
b0 I
b0 O
b0 \
b0 i
b0 v
b0 $"
#5
0R
1T
b10 P
b1 >
b1 C
b1 #"
b1 N
1S
19
1#
#6
09
0#
#7
1R
b11 P
1U
b10 >
b10 C
b10 #"
b10 N
0S
19
1#
#8
09
0#
#9
0R
0T
1V
b100 P
b11 >
b11 C
b11 #"
b11 N
1S
19
1#
#10
09
0#
#11
1R
b101 P
1W
0U
b100 >
b100 C
b100 #"
b100 N
0S
19
1#
#12
09
0#
#13
0R
1T
b110 P
b101 >
b101 C
b101 #"
b101 N
1S
19
1#
#14
09
0#
#15
1R
b111 P
1U
b110 >
b110 C
b110 #"
b110 N
0S
19
1#
#16
09
0#
#17
0R
0T
0V
1X
b1000 P
b111 >
b111 C
b111 #"
b111 N
1S
19
1#
#18
09
0#
#19
1R
b1001 P
1Y
0W
0U
b1000 >
b1000 C
b1000 #"
b1000 N
0S
19
1#
#20
09
0#
#21
0R
1T
b1010 P
b1001 >
b1001 C
b1001 #"
b1001 N
1S
19
1#
#22
09
0#
#23
1R
b1011 P
1U
b1010 >
b1010 C
b1010 #"
b1010 N
0S
19
1#
#24
09
0#
#25
0R
0T
1V
b1100 P
b1011 >
b1011 C
b1011 #"
b1011 N
1S
19
1#
#26
09
0#
#27
1R
b1101 P
1W
0U
b1100 >
b1100 C
b1100 #"
b1100 N
0S
19
1#
#28
09
0#
#29
0R
1T
b1110 P
b1101 >
b1101 C
b1101 #"
b1101 N
1S
19
1#
#30
09
0#
#31
1R
b1111 P
1U
b1110 >
b1110 C
b1110 #"
b1110 N
0S
19
1#
#32
09
0#
#33
0R
0T
0V
0X
1Q
b0 P
b1111 >
b1111 C
b1111 #"
b1111 N
1S
19
1#
#34
09
0#
#35
0_
1a
b10 ]
b1 [
1`
1@
1R
b1 P
0Q
1=
0Y
0W
0U
b10000 >
b10000 C
b10000 #"
b0 N
0S
19
1#
#36
1x
1""
1~
1|
b1111000000010000 >
b1111000000010000 C
b1111000000010000 #"
b1111 u
1z
0B
1{
1}
1!"
1n
1p
1r
1_
1c
1e
1T
1V
1X
0A
0@
1R
1a
1l
1y
b1111 t
b1111 g
b1111 Z
b1111 M
b1111 P
b1111 ]
b1111 j
b1111 w
09
0#
b1111111111111111 ?
b1111111111111111 H
b1111111111111111 %"
1D
1E
0G
1F
b11 7
b11 I
b11 O
b11 \
b11 i
b11 v
b11 $"
#37
1k
1^
1Q
1:
1m
1o
1q
b1111 h
1s
1b
1d
b1111 [
1f
1S
1U
1W
b1111111111111111 >
b1111111111111111 C
b1111111111111111 #"
b1111 N
1Y
0=
1B
1A
1@
19
1#
#38
0B
0A
0@
0R
0_
0l
0y
b1110 P
0Q
b1110 ]
0^
b1110 j
0k
b1110 w
0x
09
0#
0D
0E
0F
b1 7
b1 I
b1 O
b1 \
b1 i
b1 v
b1 $"
#39
1R
0T
b1101 P
b1111111111111110 >
b1111111111111110 C
b1111111111111110 #"
b1110 N
0S
19
1#
#40
09
0#
#41
0R
b1100 P
1S
b1111111111111101 >
b1111111111111101 C
b1111111111111101 #"
b1101 N
0U
19
1#
#42
09
0#
#43
1R
1T
0V
b1011 P
b1111111111111100 >
b1111111111111100 C
b1111111111111100 #"
b1100 N
0S
19
1#
#44
09
0#
#45
0R
b1010 P
1S
1U
b1111111111111011 >
b1111111111111011 C
b1111111111111011 #"
b1011 N
0W
19
1#
#46
09
0#
#47
1R
0T
b1001 P
b1111111111111010 >
b1111111111111010 C
b1111111111111010 #"
b1010 N
0S
19
1#
#48
09
0#
#49
0R
b1000 P
1S
b1111111111111001 >
b1111111111111001 C
b1111111111111001 #"
b1001 N
0U
19
1#
#50
09
0#
#51
1R
1T
1V
0X
b111 P
b1111111111111000 >
b1111111111111000 C
b1111111111111000 #"
b1000 N
0S
19
1#
#52
09
0#
#53
0R
b110 P
1S
1U
1W
b1111111111110111 >
b1111111111110111 C
b1111111111110111 #"
b111 N
0Y
19
1#
#54
09
0#
#55
1R
0T
b101 P
b1111111111110110 >
b1111111111110110 C
b1111111111110110 #"
b110 N
0S
19
1#
#56
09
0#
#57
0R
b100 P
1S
b1111111111110101 >
b1111111111110101 C
b1111111111110101 #"
b101 N
0U
19
1#
#58
09
0#
#59
1R
1T
0V
b11 P
b1111111111110100 >
b1111111111110100 C
b1111111111110100 #"
b100 N
0S
19
1#
#60
09
0#
#61
0R
b10 P
1S
1U
b1111111111110011 >
b1111111111110011 C
b1111111111110011 #"
b11 N
0W
19
1#
#62
09
0#
#63
1R
0T
b1 P
b1111111111110010 >
b1111111111110010 C
b1111111111110010 #"
b10 N
0S
19
1#
#64
09
0#
#65
0R
b0 P
1S
b1111111111110001 >
b1111111111110001 C
b1111111111110001 #"
b1 N
0U
19
1#
#66
09
0#
#67
1R
1T
1V
1X
1Q
b1111 P
b1111111111110000 >
b1111111111110000 C
b1111111111110000 #"
b0 N
0S
19
1#
#68
09
0#
#69
1_
0a
b1101 ]
b1110 [
0`
0R
1@
b1110 P
0Q
1S
1U
1W
b1111111111101111 >
b1111111111101111 C
b1111111111101111 #"
b1111 N
1Y
1=
19
1#
#70
09
0#
#71
0@
1R
0T
b1101 P
0=
b1111111111101110 >
b1111111111101110 C
b1111111111101110 #"
b1110 N
0S
19
1#
#72
1T
1a
1l
1y
b1111 P
b1111 ]
1k
b1111 j
1x
b1111 w
09
0#
1D
1E
1F
b11 7
b11 I
b11 O
b11 \
b11 i
b11 v
b11 $"
#73
1^
1Q
1;
b1111 [
1`
b1111111111111111 >
b1111111111111111 C
b1111111111111111 #"
b1111 N
1S
1B
1A
1@
19
1#
#74
0A
0@
0R
0T
0_
0a
0l
0n
0y
0{
b1100 P
0Q
b1100 ]
0^
b1100 j
0k
b1100 w
0x
09
0#
0D
0E
0F
b10 7
b10 I
b10 O
b10 \
b10 i
b10 v
b10 $"
#75
1R
0V
b1001 P
0U
b1111111111111100 >
b1111111111111100 C
b1111111111111100 #"
b1100 N
0S
19
1#
#76
09
0#
#77
0R
1T
1V
0X
b110 P
1S
b1111111111111001 >
b1111111111111001 C
b1111111111111001 #"
b1001 N
0W
19
1#
#78
09
0#
#79
1R
0V
b11 P
0Y
1W
1U
b1111111111110110 >
b1111111111110110 C
b1111111111110110 #"
b110 N
0S
19
1#
#80
09
0#
#81
0R
0T
b0 P
1S
b1111111111110011 >
b1111111111110011 C
b1111111111110011 #"
b11 N
0W
19
1#
#82
09
0#
#83
1R
1V
1X
1Q
b1101 P
0U
b1111111111110000 >
b1111111111110000 C
b1111111111110000 #"
b0 N
0S
19
1#
#84
09
0#
#85
1_
0c
b1001 ]
0b
b1100 [
0`
0R
1T
0V
1@
b1010 P
0Q
1S
1W
b1111111111001101 >
b1111111111001101 C
b1111111111001101 #"
b1101 N
1Y
1=
19
1#
#86
09
0#
#87
0@
1R
1V
0X
b111 P
0=
0W
1U
b1111111111001010 >
b1111111111001010 C
b1111111111001010 #"
b1010 N
0S
19
1#
#88
09
0#
#89
0R
0T
b100 P
1S
1W
b1111111111000111 >
b1111111111000111 C
b1111111111000111 #"
b111 N
0Y
19
1#
#90
09
0#
#91
1R
0V
b1 P
0U
b1111111111000100 >
b1111111111000100 C
b1111111111000100 #"
b100 N
0S
19
1#
#92
09
0#
#93
0R
1T
1V
1X
1Q
b1110 P
1S
b1111111111000001 >
b1111111111000001 C
b1111111111000001 #"
b1 N
0W
19
1#
#94
09
0#
#95
0_
1a
1c
0e
b110 ]
1`
b1001 [
0d
1@
1R
0V
b1011 P
0Q
1=
1Y
1W
1U
b1111111110011110 >
b1111111110011110 C
b1111111110011110 #"
b1110 N
0S
19
1#
#96
0z
0|
0~
b111110011110 >
b111110011110 C
b111110011110 #"
b0 u
0""
0}
0!"
0p
0r
0a
0c
0R
0T
0X
0B
0A
0@
0V
0_
0e
0l
0n
0y
0{
b0 t
b0 g
b0 Z
b0 M
b0 P
b0 ]
1k
b0 j
0x
b0 w
09
0#
b0 ?
b0 H
b0 %"
1D
1E
1F
b11 7
b11 I
b11 O
b11 \
b11 i
b11 v
b11 $"
#97
0k
0:
0s
0q
0o
b0 h
0m
0f
b0 [
0`
0U
0W
b0 >
b0 C
b0 #"
b0 N
0Y
0=
1B
1A
1@
19
1#
#98
0B
0A
1R
0@
b1 P
b1 M
09
0#
b1 ?
b1 H
b1 %"
#99
0;
b1 >
b1 C
b1 #"
b1 N
1S
1B
1A
1@
19
1#
#100
0B
0A
0R
1T
0@
b10 P
b10 M
09
0#
b10 ?
b10 H
b10 %"
#101
0S
b10 >
b10 C
b10 #"
b10 N
1U
1B
1A
1@
19
1#
#102
0B
0A
1R
0@
b11 P
b11 M
09
0#
b11 ?
b11 H
b11 %"
#103
b11 >
b11 C
b11 #"
b11 N
1S
1B
1A
1@
19
1#
#104
0B
0A
0R
0T
1V
0@
b100 P
b100 M
09
0#
b100 ?
b100 H
b100 %"
#105
0S
0U
b100 >
b100 C
b100 #"
b100 N
1W
1B
1A
1@
19
1#
#106
0B
0A
1R
0@
b101 P
b101 M
09
0#
b101 ?
b101 H
b101 %"
#107
b101 >
b101 C
b101 #"
b101 N
1S
1B
1A
1@
19
1#
#108
0B
0A
0R
1T
0@
b110 P
b110 M
09
0#
b110 ?
b110 H
b110 %"
#109
0S
b110 >
b110 C
b110 #"
b110 N
1U
1B
1A
1@
19
1#
#110
0B
0A
1R
0@
b111 P
b111 M
09
0#
b111 ?
b111 H
b111 %"
#111
b111 >
b111 C
b111 #"
b111 N
1S
1B
1A
1@
19
1#
#112
0B
0A
0R
0T
0V
1X
0@
b1000 P
b1000 M
09
0#
b1000 ?
b1000 H
b1000 %"
#113
0S
0U
0W
b1000 >
b1000 C
b1000 #"
b1000 N
1Y
1B
1A
1@
19
1#
#114
0B
0A
1R
0@
b1001 P
b1001 M
09
0#
b1001 ?
b1001 H
b1001 %"
#115
b1001 >
b1001 C
b1001 #"
b1001 N
1S
1B
1A
1@
19
1#
#116
0B
0A
0R
1T
0@
b1010 P
b1010 M
09
0#
b1010 ?
b1010 H
b1010 %"
#117
0S
b1010 >
b1010 C
b1010 #"
b1010 N
1U
1B
1A
1@
19
1#
#118
0B
0A
1R
0@
b1011 P
b1011 M
09
0#
b1011 ?
b1011 H
b1011 %"
#119
b1011 >
b1011 C
b1011 #"
b1011 N
1S
1B
1A
1@
19
1#
#120
0B
0A
0R
0T
1V
0@
b1100 P
b1100 M
09
0#
b1100 ?
b1100 H
b1100 %"
#121
0S
0U
b1100 >
b1100 C
b1100 #"
b1100 N
1W
1B
1A
1@
19
1#
#122
0B
0A
1R
0@
b1101 P
b1101 M
09
0#
b1101 ?
b1101 H
b1101 %"
#123
b1101 >
b1101 C
b1101 #"
b1101 N
1S
1B
1A
1@
19
1#
#124
0B
0A
0R
1T
0@
b1110 P
b1110 M
09
0#
b1110 ?
b1110 H
b1110 %"
#125
0S
b1110 >
b1110 C
b1110 #"
b1110 N
1U
1B
1A
1@
19
1#
#126
0B
0A
1R
0@
b1111 P
b1111 M
09
0#
b1111 ?
b1111 H
b1111 %"
#127
1Q
b1111 >
b1111 C
b1111 #"
b1111 N
1S
1B
1A
1@
19
1#
#128
0B
0A
0R
0T
0V
0X
0@
b0 P
1Q
b0 M
09
0#
08
b0 ?
b0 H
b0 %"
#129
0Q
0S
0U
0W
b0 >
b0 C
b0 #"
b0 N
0Y
1B
1A
1@
19
1#
