Archivo Tarea 1 con Yosys interno/testbench.vcd
$date
	Sat Sep 17 18:25:42 2022
$end
$version
	Icarus Verilog
$end
$timescale
	1ns
$end
$scope module tb $end
$var wire 2 ! modo [1:0] $end
$var wire 1 " enb $end
$var wire 1 # clk $end
$var wire 1 $ RCO $end
$var wire 4 % Q [3:0] $end
$var wire 4 & D [3:0] $end
$scope module DUT $end
$var wire 1 ' _000_ $end
$var wire 1 ( _001_ $end
$var wire 1 ) _002_ $end
$var wire 1 * _004_ $end
$var wire 1 + _008_ $end
$var wire 1 , _009_ $end
$var wire 1 - _016_ $end
$var wire 1 . _017_ $end
$var wire 1 / _021_ $end
$var wire 1 0 _022_ $end
$var wire 1 1 _023_ $end
$var wire 1 2 _024_ $end
$var wire 1 3 _025_ $end
$var wire 1 4 _026_ $end
$var wire 1 5 _027_ $end
$var wire 1 6 _028_ $end
$var wire 1 7 _029_ $end
$var wire 1 8 _030_ $end
$var wire 1 9 _031_ $end
$var wire 1 : _032_ $end
$var wire 1 ; _033_ $end
$var wire 1 < _035_ $end
$var wire 1 = _041_ $end
$var wire 1 > _042_ $end
$var wire 1 ? _045_ $end
$var wire 1 @ _046_ $end
$var wire 1 A _047_ $end
$var wire 1 B d_Out $end
$var wire 4 C d_In [3:0] $end
$var wire 32 D _044_ [31:0] $end
$var wire 32 E _043_ [31:0] $end
$var wire 32 F _040_ [31:0] $end
$var wire 32 G _039_ [31:0] $end
$var wire 32 H _038_ [31:0] $end
$var wire 4 I _037_ [3:0] $end
$var wire 16 J _036_ [15:0] $end
$var wire 3 K _034_ [2:0] $end
$var wire 2 L _020_ [1:0] $end
$var wire 4 M _019_ [3:0] $end
$var wire 4 N _018_ [3:0] $end
$var wire 2 O _015_ [1:0] $end
$var wire 2 P _014_ [1:0] $end
$var wire 2 Q _013_ [1:0] $end
$var wire 2 R _012_ [1:0] $end
$var wire 2 S _011_ [1:0] $end
$var wire 2 T _010_ [1:0] $end
$var wire 2 U _007_ [1:0] $end
$var wire 2 V _006_ [1:0] $end
$var wire 2 W _005_ [1:0] $end
$var wire 32 X _003_ [31:0] $end
$var wire 1 $ RCO $end
$var wire 4 Y Q [3:0] $end
$var wire 2 Z MODO [1:0] $end
$var wire 1 " ENB $end
$var wire 4 [ D [3:0] $end
$var wire 1 # CLK $end
$scope module DFF_0 $end
$var wire 1 \ D $end
$var wire 1 ] _0_ $end
$var wire 1 " EN $end
$var wire 1 # CLK $end
$var reg 1 ^ Q $end
$upscope $end
$scope module DFF_1 $end
$var wire 1 _ D $end
$var wire 1 ` _0_ $end
$var wire 1 " EN $end
$var wire 1 # CLK $end
$var reg 1 a Q $end
$upscope $end
$scope module DFF_1bit $end
$var wire 1 B D $end
$var wire 1 b _0_ $end
$var wire 1 " EN $end
$var wire 1 # CLK $end
$var reg 1 $ Q $end
$upscope $end
$scope module DFF_2 $end
$var wire 1 c D $end
$var wire 1 d _0_ $end
$var wire 1 " EN $end
$var wire 1 # CLK $end
$var reg 1 e Q $end
$upscope $end
$scope module DFF_3 $end
$var wire 1 f D $end
$var wire 1 g _0_ $end
$var wire 1 " EN $end
$var wire 1 # CLK $end
$var reg 1 h Q $end
$upscope $end
$upscope $end
$scope module test $end
$var wire 4 i Q [3:0] $end
$var wire 1 $ RCO $end
$var reg 1 # CLK $end
$var reg 4 j D [3:0] $end
$var reg 1 " ENB $end
$var reg 2 k MODO [1:0] $end
$upscope $end
$upscope $end
$scope module tb16 $end
$var wire 2 l modo [1:0] $end
$var wire 1 m enb $end
$var wire 1 n clk $end
$var wire 1 o RCO164 $end
$var wire 1 p RCO163 $end
$var wire 1 q RCO162 $end
$var wire 1 r RCO $end
$var wire 16 s Q [15:0] $end
$var wire 16 t D [15:0] $end
$scope module DUT16 $end
$var wire 1 u _01_ $end
$var wire 1 v _02_ $end
$var wire 1 w _03_ $end
$var wire 1 x _04_ $end
$var wire 1 y _05_ $end
$var wire 1 z _06_ $end
$var wire 1 { _07_ $end
$var wire 1 | clk2 $end
$var wire 1 } clk3 $end
$var wire 1 ~ clk4 $end
$var wire 1 !" modo11 $end
$var wire 1 "" modo113 $end
$var wire 1 #" modo114 $end
$var wire 16 $" salida [15:0] $end
$var wire 16 %" entrada [15:0] $end
$var wire 2 &" _00_ [1:0] $end
$var wire 1 o RCO164 $end
$var wire 1 p RCO163 $end
$var wire 1 q RCO162 $end
$var wire 1 r RCO $end
$var wire 2 '" MODO [1:0] $end
$var wire 1 m ENB $end
$var wire 1 n CLK $end
$scope module contador1 $end
$var wire 4 (" D [3:0] $end
$var wire 1 )" _000_ $end
$var wire 1 *" _001_ $end
$var wire 1 +" _002_ $end
$var wire 1 ," _004_ $end
$var wire 1 -" _008_ $end
$var wire 1 ." _009_ $end
$var wire 1 /" _016_ $end
$var wire 1 0" _017_ $end
$var wire 1 1" _021_ $end
$var wire 1 2" _022_ $end
$var wire 1 3" _023_ $end
$var wire 1 4" _024_ $end
$var wire 1 5" _025_ $end
$var wire 1 6" _026_ $end
$var wire 1 7" _027_ $end
$var wire 1 8" _028_ $end
$var wire 1 9" _029_ $end
$var wire 1 :" _030_ $end
$var wire 1 ;" _031_ $end
$var wire 1 <" _032_ $end
$var wire 1 =" _033_ $end
$var wire 1 >" _035_ $end
$var wire 1 ?" _041_ $end
$var wire 1 @" _042_ $end
$var wire 1 A" _045_ $end
$var wire 1 B" _046_ $end
$var wire 1 C" _047_ $end
$var wire 1 D" d_Out $end
$var wire 4 E" d_In [3:0] $end
$var wire 32 F" _044_ [31:0] $end
$var wire 32 G" _043_ [31:0] $end
$var wire 32 H" _040_ [31:0] $end
$var wire 32 I" _039_ [31:0] $end
$var wire 32 J" _038_ [31:0] $end
$var wire 4 K" _037_ [3:0] $end
$var wire 16 L" _036_ [15:0] $end
$var wire 3 M" _034_ [2:0] $end
$var wire 2 N" _020_ [1:0] $end
$var wire 4 O" _019_ [3:0] $end
$var wire 4 P" _018_ [3:0] $end
$var wire 2 Q" _015_ [1:0] $end
$var wire 2 R" _014_ [1:0] $end
$var wire 2 S" _013_ [1:0] $end
$var wire 2 T" _012_ [1:0] $end
$var wire 2 U" _011_ [1:0] $end
$var wire 2 V" _010_ [1:0] $end
$var wire 2 W" _007_ [1:0] $end
$var wire 2 X" _006_ [1:0] $end
$var wire 2 Y" _005_ [1:0] $end
$var wire 32 Z" _003_ [31:0] $end
$var wire 1 r RCO $end
$var wire 4 [" Q [3:0] $end
$var wire 2 \" MODO [1:0] $end
$var wire 1 m ENB $end
$var wire 1 n CLK $end
$scope module DFF_0 $end
$var wire 1 ]" D $end
$var wire 1 ^" _0_ $end
$var wire 1 m EN $end
$var wire 1 n CLK $end
$var reg 1 _" Q $end
$upscope $end
$scope module DFF_1 $end
$var wire 1 `" D $end
$var wire 1 a" _0_ $end
$var wire 1 m EN $end
$var wire 1 n CLK $end
$var reg 1 b" Q $end
$upscope $end
$scope module DFF_1bit $end
$var wire 1 D" D $end
$var wire 1 c" _0_ $end
$var wire 1 m EN $end
$var wire 1 n CLK $end
$var reg 1 r Q $end
$upscope $end
$scope module DFF_2 $end
$var wire 1 d" D $end
$var wire 1 e" _0_ $end
$var wire 1 m EN $end
$var wire 1 n CLK $end
$var reg 1 f" Q $end
$upscope $end
$scope module DFF_3 $end
$var wire 1 g" D $end
$var wire 1 h" _0_ $end
$var wire 1 m EN $end
$var wire 1 n CLK $end
$var reg 1 i" Q $end
$upscope $end
$upscope $end
$scope module contador2 $end
$var wire 1 | CLK $end
$var wire 4 j" D [3:0] $end
$var wire 1 k" _000_ $end
$var wire 1 l" _001_ $end
$var wire 1 m" _002_ $end
$var wire 1 n" _004_ $end
$var wire 1 o" _008_ $end
$var wire 1 p" _009_ $end
$var wire 1 q" _016_ $end
$var wire 1 r" _017_ $end
$var wire 1 s" _021_ $end
$var wire 1 t" _022_ $end
$var wire 1 u" _023_ $end
$var wire 1 v" _024_ $end
$var wire 1 w" _025_ $end
$var wire 1 x" _026_ $end
$var wire 1 y" _027_ $end
$var wire 1 z" _028_ $end
$var wire 1 {" _029_ $end
$var wire 1 |" _030_ $end
$var wire 1 }" _031_ $end
$var wire 1 ~" _032_ $end
$var wire 1 !# _033_ $end
$var wire 1 "# _035_ $end
$var wire 1 ## _041_ $end
$var wire 1 $# _042_ $end
$var wire 1 %# _045_ $end
$var wire 1 &# _046_ $end
$var wire 1 '# _047_ $end
$var wire 1 (# d_Out $end
$var wire 4 )# d_In [3:0] $end
$var wire 32 *# _044_ [31:0] $end
$var wire 32 +# _043_ [31:0] $end
$var wire 32 ,# _040_ [31:0] $end
$var wire 32 -# _039_ [31:0] $end
$var wire 32 .# _038_ [31:0] $end
$var wire 4 /# _037_ [3:0] $end
$var wire 16 0# _036_ [15:0] $end
$var wire 3 1# _034_ [2:0] $end
$var wire 2 2# _020_ [1:0] $end
$var wire 4 3# _019_ [3:0] $end
$var wire 4 4# _018_ [3:0] $end
$var wire 2 5# _015_ [1:0] $end
$var wire 2 6# _014_ [1:0] $end
$var wire 2 7# _013_ [1:0] $end
$var wire 2 8# _012_ [1:0] $end
$var wire 2 9# _011_ [1:0] $end
$var wire 2 :# _010_ [1:0] $end
$var wire 2 ;# _007_ [1:0] $end
$var wire 2 <# _006_ [1:0] $end
$var wire 2 =# _005_ [1:0] $end
$var wire 32 ># _003_ [31:0] $end
$var wire 1 q RCO $end
$var wire 4 ?# Q [3:0] $end
$var wire 2 @# MODO [1:0] $end
$var wire 1 m ENB $end
$scope module DFF_0 $end
$var wire 1 | CLK $end
$var wire 1 A# D $end
$var wire 1 B# _0_ $end
$var wire 1 m EN $end
$var reg 1 C# Q $end
$upscope $end
$scope module DFF_1 $end
$var wire 1 | CLK $end
$var wire 1 D# D $end
$var wire 1 E# _0_ $end
$var wire 1 m EN $end
$var reg 1 F# Q $end
$upscope $end
$scope module DFF_1bit $end
$var wire 1 | CLK $end
$var wire 1 (# D $end
$var wire 1 G# _0_ $end
$var wire 1 m EN $end
$var reg 1 q Q $end
$upscope $end
$scope module DFF_2 $end
$var wire 1 | CLK $end
$var wire 1 H# D $end
$var wire 1 I# _0_ $end
$var wire 1 m EN $end
$var reg 1 J# Q $end
$upscope $end
$scope module DFF_3 $end
$var wire 1 | CLK $end
$var wire 1 K# D $end
$var wire 1 L# _0_ $end
$var wire 1 m EN $end
$var reg 1 M# Q $end
$upscope $end
$upscope $end
$scope module contador3 $end
$var wire 1 } CLK $end
$var wire 4 N# D [3:0] $end
$var wire 1 O# _000_ $end
$var wire 1 P# _001_ $end
$var wire 1 Q# _002_ $end
$var wire 1 R# _004_ $end
$var wire 1 S# _008_ $end
$var wire 1 T# _009_ $end
$var wire 1 U# _016_ $end
$var wire 1 V# _017_ $end
$var wire 1 W# _021_ $end
$var wire 1 X# _022_ $end
$var wire 1 Y# _023_ $end
$var wire 1 Z# _024_ $end
$var wire 1 [# _025_ $end
$var wire 1 \# _026_ $end
$var wire 1 ]# _027_ $end
$var wire 1 ^# _028_ $end
$var wire 1 _# _029_ $end
$var wire 1 `# _030_ $end
$var wire 1 a# _031_ $end
$var wire 1 b# _032_ $end
$var wire 1 c# _033_ $end
$var wire 1 d# _035_ $end
$var wire 1 e# _041_ $end
$var wire 1 f# _042_ $end
$var wire 1 g# _045_ $end
$var wire 1 h# _046_ $end
$var wire 1 i# _047_ $end
$var wire 1 j# d_Out $end
$var wire 4 k# d_In [3:0] $end
$var wire 32 l# _044_ [31:0] $end
$var wire 32 m# _043_ [31:0] $end
$var wire 32 n# _040_ [31:0] $end
$var wire 32 o# _039_ [31:0] $end
$var wire 32 p# _038_ [31:0] $end
$var wire 4 q# _037_ [3:0] $end
$var wire 16 r# _036_ [15:0] $end
$var wire 3 s# _034_ [2:0] $end
$var wire 2 t# _020_ [1:0] $end
$var wire 4 u# _019_ [3:0] $end
$var wire 4 v# _018_ [3:0] $end
$var wire 2 w# _015_ [1:0] $end
$var wire 2 x# _014_ [1:0] $end
$var wire 2 y# _013_ [1:0] $end
$var wire 2 z# _012_ [1:0] $end
$var wire 2 {# _011_ [1:0] $end
$var wire 2 |# _010_ [1:0] $end
$var wire 2 }# _007_ [1:0] $end
$var wire 2 ~# _006_ [1:0] $end
$var wire 2 !$ _005_ [1:0] $end
$var wire 32 "$ _003_ [31:0] $end
$var wire 1 p RCO $end
$var wire 4 #$ Q [3:0] $end
$var wire 2 $$ MODO [1:0] $end
$var wire 1 m ENB $end
$scope module DFF_0 $end
$var wire 1 } CLK $end
$var wire 1 %$ D $end
$var wire 1 &$ _0_ $end
$var wire 1 m EN $end
$var reg 1 '$ Q $end
$upscope $end
$scope module DFF_1 $end
$var wire 1 } CLK $end
$var wire 1 ($ D $end
$var wire 1 )$ _0_ $end
$var wire 1 m EN $end
$var reg 1 *$ Q $end
$upscope $end
$scope module DFF_1bit $end
$var wire 1 } CLK $end
$var wire 1 j# D $end
$var wire 1 +$ _0_ $end
$var wire 1 m EN $end
$var reg 1 p Q $end
$upscope $end
$scope module DFF_2 $end
$var wire 1 } CLK $end
$var wire 1 ,$ D $end
$var wire 1 -$ _0_ $end
$var wire 1 m EN $end
$var reg 1 .$ Q $end
$upscope $end
$scope module DFF_3 $end
$var wire 1 } CLK $end
$var wire 1 /$ D $end
$var wire 1 0$ _0_ $end
$var wire 1 m EN $end
$var reg 1 1$ Q $end
$upscope $end
$upscope $end
$scope module contador4 $end
$var wire 1 ~ CLK $end
$var wire 4 2$ D [3:0] $end
$var wire 1 3$ _000_ $end
$var wire 1 4$ _001_ $end
$var wire 1 5$ _002_ $end
$var wire 1 6$ _004_ $end
$var wire 1 7$ _008_ $end
$var wire 1 8$ _009_ $end
$var wire 1 9$ _016_ $end
$var wire 1 :$ _017_ $end
$var wire 1 ;$ _021_ $end
$var wire 1 <$ _022_ $end
$var wire 1 =$ _023_ $end
$var wire 1 >$ _024_ $end
$var wire 1 ?$ _025_ $end
$var wire 1 @$ _026_ $end
$var wire 1 A$ _027_ $end
$var wire 1 B$ _028_ $end
$var wire 1 C$ _029_ $end
$var wire 1 D$ _030_ $end
$var wire 1 E$ _031_ $end
$var wire 1 F$ _032_ $end
$var wire 1 G$ _033_ $end
$var wire 1 H$ _035_ $end
$var wire 1 I$ _041_ $end
$var wire 1 J$ _042_ $end
$var wire 1 K$ _045_ $end
$var wire 1 L$ _046_ $end
$var wire 1 M$ _047_ $end
$var wire 1 N$ d_Out $end
$var wire 4 O$ d_In [3:0] $end
$var wire 32 P$ _044_ [31:0] $end
$var wire 32 Q$ _043_ [31:0] $end
$var wire 32 R$ _040_ [31:0] $end
$var wire 32 S$ _039_ [31:0] $end
$var wire 32 T$ _038_ [31:0] $end
$var wire 4 U$ _037_ [3:0] $end
$var wire 16 V$ _036_ [15:0] $end
$var wire 3 W$ _034_ [2:0] $end
$var wire 2 X$ _020_ [1:0] $end
$var wire 4 Y$ _019_ [3:0] $end
$var wire 4 Z$ _018_ [3:0] $end
$var wire 2 [$ _015_ [1:0] $end
$var wire 2 \$ _014_ [1:0] $end
$var wire 2 ]$ _013_ [1:0] $end
$var wire 2 ^$ _012_ [1:0] $end
$var wire 2 _$ _011_ [1:0] $end
$var wire 2 `$ _010_ [1:0] $end
$var wire 2 a$ _007_ [1:0] $end
$var wire 2 b$ _006_ [1:0] $end
$var wire 2 c$ _005_ [1:0] $end
$var wire 32 d$ _003_ [31:0] $end
$var wire 1 o RCO $end
$var wire 4 e$ Q [3:0] $end
$var wire 2 f$ MODO [1:0] $end
$var wire 1 m ENB $end
$scope module DFF_0 $end
$var wire 1 ~ CLK $end
$var wire 1 g$ D $end
$var wire 1 h$ _0_ $end
$var wire 1 m EN $end
$var reg 1 i$ Q $end
$upscope $end
$scope module DFF_1 $end
$var wire 1 ~ CLK $end
$var wire 1 j$ D $end
$var wire 1 k$ _0_ $end
$var wire 1 m EN $end
$var reg 1 l$ Q $end
$upscope $end
$scope module DFF_1bit $end
$var wire 1 ~ CLK $end
$var wire 1 N$ D $end
$var wire 1 m$ _0_ $end
$var wire 1 m EN $end
$var reg 1 o Q $end
$upscope $end
$scope module DFF_2 $end
$var wire 1 ~ CLK $end
$var wire 1 n$ D $end
$var wire 1 o$ _0_ $end
$var wire 1 m EN $end
$var reg 1 p$ Q $end
$upscope $end
$scope module DFF_3 $end
$var wire 1 ~ CLK $end
$var wire 1 q$ D $end
$var wire 1 r$ _0_ $end
$var wire 1 m EN $end
$var reg 1 s$ Q $end
$upscope $end
$upscope $end
$upscope $end
$scope module test16 $end
$var wire 1 r RCO $end
$var wire 1 q RCO162 $end
$var wire 1 p RCO163 $end
$var wire 1 o RCO164 $end
$var wire 16 t$ salida [15:0] $end
$var reg 1 n CLK $end
$var reg 1 m ENB $end
$var reg 2 u$ MODO [1:0] $end
$var reg 16 v$ entrada [15:0] $end
$upscope $end
$upscope $end
$enddefinitions $end
#0
$dumpvars
b0 v$
b11 u$
bx t$
xs$
0r$
0q$
xp$
0o$
0n$
xm$
xl$
0k$
0j$
xi$
0h$
0g$
b11 f$
bx e$
b0zxxxx d$
bx c$
bx b$
bx a$
b0 `$
b0 _$
b0 ^$
b0 ]$
b1 \$
bx [$
bx Z$
bx Y$
b0 X$
b0x W$
b0 V$
b0 U$
bzxxxx T$
bzxxxx S$
b0zxxx R$
bzxxx Q$
bzxxx P$
b0 O$
xN$
xM$
xL$
xK$
1J$
1I$
xH$
0G$
0F$
0E$
1D$
xC$
xB$
xA$
1@$
1?$
0>$
x=$
x<$
x;$
1:$
x9$
18$
x7$
16$
x5$
x4$
x3$
b0 2$
x1$
00$
0/$
x.$
0-$
0,$
x+$
x*$
0)$
0($
x'$
0&$
0%$
b11 $$
bx #$
b0zxxxx "$
bx !$
bx ~#
bx }#
b0 |#
b0 {#
b0 z#
b0 y#
b1 x#
bx w#
bx v#
bx u#
b0 t#
b0x s#
b0 r#
b0 q#
bzxxxx p#
bzxxxx o#
b0zxxx n#
bzxxx m#
bzxxx l#
b0 k#
xj#
xi#
xh#
xg#
1f#
1e#
xd#
0c#
0b#
0a#
1`#
x_#
x^#
x]#
1\#
1[#
0Z#
xY#
xX#
xW#
1V#
xU#
1T#
xS#
1R#
xQ#
xP#
xO#
b0 N#
xM#
0L#
0K#
xJ#
0I#
0H#
xG#
xF#
0E#
0D#
xC#
0B#
0A#
b11 @#
bx ?#
b0zxxxx >#
bx =#
bx <#
bx ;#
b0 :#
b0 9#
b0 8#
b0 7#
b1 6#
bx 5#
bx 4#
bx 3#
b0 2#
b0x 1#
b0 0#
b0 /#
bzxxxx .#
bzxxxx -#
b0zxxx ,#
bzxxx +#
bzxxx *#
b0 )#
x(#
x'#
x&#
x%#
1$#
1##
x"#
0!#
0~"
0}"
1|"
x{"
xz"
xy"
1x"
1w"
0v"
xu"
xt"
xs"
1r"
xq"
1p"
xo"
1n"
xm"
xl"
xk"
b0 j"
xi"
0h"
0g"
xf"
0e"
0d"
xc"
xb"
0a"
0`"
x_"
0^"
0]"
b11 \"
bx ["
b0zxxxx Z"
bx Y"
bx X"
bx W"
b0 V"
b0 U"
b0 T"
b0 S"
b1 R"
bx Q"
bx P"
bx O"
b0 N"
b0x M"
b0 L"
b0 K"
bzxxxx J"
bzxxxx I"
b0zxxx H"
bzxxx G"
bzxxx F"
b0 E"
xD"
xC"
xB"
xA"
1@"
1?"
x>"
0="
0<"
0;"
1:"
x9"
x8"
x7"
16"
15"
04"
x3"
x2"
x1"
10"
x/"
1."
x-"
1,"
x+"
x*"
x)"
b0 ("
b11 '"
b0 &"
b0 %"
bx $"
1#"
1""
1!"
0~
0}
0|
0{
0z
0y
0x
0w
0v
0u
b0 t
bx s
xr
xq
xp
xo
0n
1m
b11 l
bx k
bx j
bx i
xh
xg
xf
xe
xd
xc
xb
xa
x`
x_
x^
x]
x\
bx [
bx Z
bx Y
b0zxxxx X
bx W
bx V
bx U
bx T
bx S
bx R
bx Q
bx P
bx O
bx N
bx M
bx L
bx K
bx J
bx I
bzxxxx H
bzxxxx G
b0zxxx F
bzxxx E
bzxxx D
bx C
xB
xA
x@
x?
x>
x=
x<
x;
x:
x9
x8
x7
x6
x5
x4
x3
x2
x1
x0
x/
x.
x-
x,
x+
x*
x)
x(
x'
bx &
bx %
x$
0#
x"
bx !
$end
#1
0m$
0+$
0G#
0c"
0N$
0j#
0(#
0D"
0H$
0d#
0"#
0>"
07$
0S#
0o"
0-"
b0 W$
b0 s#
b0 1#
b0 M"
0A$
0B$
03$
15$
0]#
0^#
0O#
1Q#
0y"
0z"
0k"
1m"
07"
08"
0)"
1+"
1;$
1<$
1=$
1C$
1W#
1X#
1Y#
1_#
1s"
1t"
1u"
1{"
11"
12"
13"
19"
0L$
14$
0h#
1P#
0&#
1l"
0B"
1*"
bz1111 T$
bz1101 S$
0M$
b11 a$
09$
bz1111 p#
bz1101 o#
0i#
b11 }#
0U#
bz1111 .#
bz1101 -#
0'#
b11 ;#
0q"
bz1111 J"
bz1101 I"
0C"
b11 W"
0/"
b1 b$
b1 ~#
b1 <#
b1 X"
bz000 Q$
bz000 P$
0K$
b0z0001 d$
b0 [$
b0z000 R$
b10 Z$
b1111 Y$
b1 c$
bz000 m#
bz000 l#
0g#
b0z0001 "$
b0 w#
b0z000 n#
b10 v#
b1111 u#
b1 !$
bz000 +#
bz000 *#
0%#
b0z0001 >#
b0 5#
b0z000 ,#
b10 4#
b1111 3#
b1 =#
bz000 G"
bz000 F"
0A"
b0z0001 Z"
b0 Q"
b0z000 H"
b10 P"
b1111 O"
b1 Y"
0i$
0l$
0p$
b0 e$
0s$
0'$
0*$
0.$
b0 #$
01$
0C#
0F#
0J#
b0 ?#
0M#
0_"
0b"
0f"
b0 s
b0 $"
b0 t$
b0 ["
0i"
1~
1z
1}
1x
1|
1v
1n
1#
#2
0q
0p
0k$
1h$
0o$
0r$
0)$
1&$
0-$
00$
0E#
1B#
0I#
0L#
0a"
1^"
0e"
0h"
0j$
1g$
0n$
0q$
0($
1%$
0,$
0/$
0D#
1A#
0H#
0K#
0`"
1]"
0d"
0g"
b1 O$
b1 k#
b1 )#
b1 E"
0m$
b1 U$
0+$
b1 q#
0G#
b1 /#
0c"
b1 K"
0N$
0j#
0(#
0D"
0H$
b0 `$
07$
b10 ]$
b0 ^$
b0 _$
0d#
b0 |#
0S#
b10 y#
b0 z#
b0 {#
0"#
b0 :#
0o"
b10 7#
b0 8#
b0 9#
0>"
b0 V"
0-"
b10 S"
b0 T"
b0 U"
0~
0D$
0`#
0|"
0:"
0""
0#"
0!"
xw
0y
0{
0z
1>$
b10 \$
b0 W$
b1000000000000 V$
1Z#
b10 x#
b0 s#
b1000000000000 r#
1v"
b10 6#
b0 1#
b1000000000000 0#
14"
b10 R"
b0 M"
b1000000000000 L"
1u
0}
1G$
0F$
0E$
1c#
0b#
0a#
1!#
0~"
0}"
1="
0<"
0;"
0x
b11 X$
0:$
1@$
1?$
b11 t#
0V#
1\#
1[#
b11 2#
0r"
1x"
1w"
b11 N"
00"
16"
15"
b11 &"
x|
0v
b0 l
b0 '"
b0 \"
b0 @#
b0 $$
b0 f$
b0 u$
0n
0#
#3
1a"
0^"
1`"
0]"
b10 E"
b10 K"
17"
1+"
b10 V"
b0 S"
01"
19"
1B"
0*"
bz1110 I"
b10000000000000 L"
b0 Y"
1/"
b1110 O"
0|
b11 P"
b0z001 H"
bz111 G"
bz001 F"
1A"
bz0000 J"
b0z0010 Z"
b1 Q"
0w
0r
b1 s
b1 $"
b1 t$
b1 ["
1_"
1n
1#
#4
0n
0#
#5
1^"
1]"
b11 E"
b11 K"
18"
1+"
b10 S"
02"
09"
07"
bz1111 I"
b11000000000000 L"
b0 X"
11"
b1101 O"
b0z000 H"
bz110 G"
bz000 F"
0A"
bz0001 J"
b0z0011 Z"
b0 P"
b1 Y"
0_"
b10 s
b10 $"
b10 t$
b10 ["
1b"
1n
1#
#6
0n
0#
#7
1e"
1d"
0a"
0^"
0`"
0]"
b100 E"
b10 T"
b100 K"
b0 V"
b0 S"
0+"
08"
1C"
bz0000 I"
b100000000000000 L"
b10 W"
12"
b1100 O"
b1 P"
bz111 G"
bz111 F"
b0z011 H"
bz0010 J"
b0z0100 Z"
b1 X"
b11 s
b11 $"
b11 t$
b11 ["
1_"
1n
1#
#8
0n
0#
#9
0h"
0g"
1^"
1e"
1]"
1d"
b101 E"
b101 K"
b0 U"
b10 S"
b10 T"
bz0001 I"
b11 W"
0B"
0C"
b101000000000000 L"
bz100 F"
bz0011 J"
b11 X"
bz100 G"
b10 Q"
b110 P"
b1011 O"
b0z0101 Z"
b0z000 H"
b11 Y"
0_"
0b"
b100 s
b100 $"
b100 t$
b100 ["
1f"
1n
1#
#10
0n
0#
#11
1a"
0^"
1`"
0]"
b110 E"
b110 K"
b10 V"
b0 S"
bz0010 I"
b110000000000000 L"
b10 Y"
b1010 O"
b111 P"
b0z001 H"
bz111 G"
bz101 F"
1A"
bz0100 J"
b0z0110 Z"
b11 Q"
b101 s
b101 $"
b101 t$
b101 ["
1_"
1n
1#
#12
0n
0#
#13
1^"
1]"
b111 E"
b111 K"
b10 S"
bz0011 I"
b111000000000000 L"
b10 X"
b1001 O"
b0z000 H"
bz110 G"
bz100 F"
0A"
bz0101 J"
b0z0111 Z"
b100 P"
b11 Y"
0_"
b110 s
b110 $"
b110 t$
b110 ["
1b"
1n
1#
#14
0n
0#
#15
1h"
1g"
0e"
0d"
0a"
0^"
0`"
0]"
b10 U"
b1000 E"
b0 T"
b1000 K"
b0 V"
b0 S"
bz0100 I"
b1000000000000000 L"
b10 W"
b1000 O"
b101 P"
bz111 G"
bz111 F"
b0z111 H"
bz0110 J"
b0z1000 Z"
b11 X"
b111 s
b111 $"
b111 t$
b111 ["
1_"
1n
1#
#16
0n
0#
#17
1^"
0e"
1h"
1]"
0d"
1g"
b1001 E"
b1001 K"
b10 S"
b0 T"
b10 U"
bz0101 I"
b11 W"
b1001000000000000 L"
bz0111 J"
b11 X"
b10 Q"
b11 Y"
bz000 G"
bz000 F"
b0z000 H"
b1010 P"
b0z1001 Z"
b111 O"
0_"
0b"
0f"
b1000 s
b1000 $"
b1000 t$
b1000 ["
1i"
1n
1#
#18
0n
0#
#19
1a"
0^"
1`"
0]"
b1010 E"
b1010 K"
b10 V"
b0 S"
1B"
bz0110 I"
b1010000000000000 L"
b10 Y"
b110 O"
b1011 P"
b0z001 H"
bz111 G"
bz001 F"
1A"
bz1000 J"
b0z1010 Z"
b11 Q"
b1001 s
b1001 $"
b1001 t$
b1001 ["
1_"
1n
1#
#20
0n
0#
#21
1^"
1]"
b1011 E"
b1011 K"
b10 S"
bz0111 I"
b1011000000000000 L"
b10 X"
b101 O"
b0z000 H"
bz110 G"
bz000 F"
0A"
bz1001 J"
b0z1011 Z"
b1000 P"
b11 Y"
0_"
b1010 s
b1010 $"
b1010 t$
b1010 ["
1b"
1n
1#
#22
0n
0#
#23
1e"
1d"
0a"
0^"
0`"
0]"
b1100 E"
b10 T"
b1100 K"
b0 V"
b0 S"
1C"
bz1000 I"
b1100000000000000 L"
b10 W"
b100 O"
b1001 P"
bz111 G"
bz111 F"
b0z011 H"
bz1010 J"
b0z1100 Z"
b11 X"
b1011 s
b1011 $"
b1011 t$
b1011 ["
1_"
1n
1#
#24
0n
0#
#25
1h"
1g"
1^"
1e"
1]"
1d"
b1101 E"
b1101 K"
b10 U"
b10 S"
b10 T"
bz1001 I"
0B"
0C"
b1 W"
b1101000000000000 L"
bz100 F"
bz1011 J"
b11 X"
bz100 G"
b10 Q"
b11 Y"
b1110 P"
b11 O"
b0z1101 Z"
b0z000 H"
0_"
0b"
b1100 s
b1100 $"
b1100 t$
b1100 ["
1f"
1n
1#
#26
0n
0#
#27
1a"
0^"
1`"
0]"
b1110 E"
b1110 K"
b10 V"
b0 S"
bz1010 I"
b1110000000000000 L"
b10 Y"
b10 O"
b1111 P"
b0z001 H"
bz111 G"
bz101 F"
1A"
bz1100 J"
b0z1110 Z"
b11 Q"
b1101 s
b1101 $"
b1101 t$
b1101 ["
1_"
1n
1#
#28
0n
0#
#29
1^"
1]"
b1111 E"
b1111 K"
b10 S"
bz1011 I"
b1111000000000000 L"
b10 X"
b1 O"
b0z000 H"
bz110 G"
bz100 F"
0A"
bz1101 J"
b0z1111 Z"
b1100 P"
b11 Y"
0_"
b1110 s
b1110 $"
b1110 t$
b1110 ["
1b"
1n
1#
#30
0n
0#
#31
0h"
0g"
0e"
0d"
1c"
0a"
0^"
1D"
0`"
0]"
1>"
b0 U"
b0 E"
1-"
b0 T"
b0 K"
b1 M"
1)"
b0 V"
b0 S"
03"
bz1100 I"
b0 L"
b0 W"
b0 O"
b1101 P"
bz111 G"
bz111 F"
b0z111 H"
bz1110 J"
b0z0000 Z"
b11 X"
b1111 s
b1111 $"
b1111 t$
b1111 ["
1_"
1n
1#
#32
0n
0#
#33
1E#
0B#
1D#
0A#
b10 )#
b10 /#
1y"
1m"
b10 :#
b0 7#
0s"
1{"
1&#
0l"
bz1110 -#
b10000000000000 0#
b0 =#
1q"
b1110 3#
b11 4#
b0z001 ,#
bz111 +#
bz001 *#
1%#
bz0000 .#
b0z0010 >#
b1 5#
b1 ?#
1C#
0c"
1^"
0e"
0h"
0D"
1]"
0d"
0g"
0>"
b1 E"
0-"
b1 K"
b0 M"
0)"
b10 S"
b0 T"
b0 U"
13"
1+"
19"
08"
1*"
07"
bz1101 I"
b1000000000000 L"
b11 W"
12"
0/"
11"
bz1111 J"
b1 X"
b0 Q"
1|
bz000 G"
bz000 F"
b0z000 H"
b10 P"
b0z0001 Z"
b1111 O"
b1 Y"
1w
0_"
0b"
1r
0f"
b10000 s
b10000 $"
b10000 t$
b0 ["
0i"
1n
1#
