Archivo Tarea 1 con CMOS LIB DELAY/testbench.vcd
$date
	Fri Sep 16 17:24:57 2022
$end
$version
	Icarus Verilog
$end
$timescale
	1ns
$end
$scope module BUF $end
$var wire 1 ! A $end
$var wire 1 " Y $end
$upscope $end
$scope module DFF $end
$var wire 1 # C $end
$var wire 1 $ D $end
$var reg 1 % Q $end
$upscope $end
$scope module NAND $end
$var wire 1 & A $end
$var wire 1 ' B $end
$var wire 1 ( Y $end
$upscope $end
$scope module NOR $end
$var wire 1 ) A $end
$var wire 1 * B $end
$var wire 1 + Y $end
$upscope $end
$scope module NOT $end
$var wire 1 , A $end
$var wire 1 - Y $end
$upscope $end
$scope module tb $end
$var wire 2 . modo [1:0] $end
$var wire 1 / enb $end
$var wire 1 0 clk $end
$var wire 1 1 RCO $end
$var wire 4 2 Q [3:0] $end
$var wire 4 3 D [3:0] $end
$scope module DUT $end
$var wire 1 1 RCO $end
$var wire 4 4 Q [3:0] $end
$var wire 2 5 MODO [1:0] $end
$var wire 1 / ENB $end
$var wire 4 6 D [3:0] $end
$var wire 1 0 CLK $end
$var reg 4 7 d_In [3:0] $end
$var reg 1 8 d_Out $end
$scope module DFF_0 $end
$var wire 1 9 D $end
$var wire 1 / EN $end
$var wire 1 0 CLK $end
$var reg 1 : Q $end
$upscope $end
$scope module DFF_1 $end
$var wire 1 ; D $end
$var wire 1 / EN $end
$var wire 1 0 CLK $end
$var reg 1 < Q $end
$upscope $end
$scope module DFF_1bit $end
$var wire 1 8 D $end
$var wire 1 / EN $end
$var wire 1 0 CLK $end
$var reg 1 1 Q $end
$upscope $end
$scope module DFF_2 $end
$var wire 1 = D $end
$var wire 1 / EN $end
$var wire 1 0 CLK $end
$var reg 1 > Q $end
$upscope $end
$scope module DFF_3 $end
$var wire 1 ? D $end
$var wire 1 / EN $end
$var wire 1 0 CLK $end
$var reg 1 @ Q $end
$upscope $end
$upscope $end
$scope module test $end
$var wire 4 A Q [3:0] $end
$var wire 1 1 RCO $end
$var reg 1 0 CLK $end
$var reg 4 B D [3:0] $end
$var reg 1 / ENB $end
$var reg 2 C MODO [1:0] $end
$upscope $end
$upscope $end
$scope module tb16 $end
$var wire 2 D modo [1:0] $end
$var wire 1 E enb $end
$var wire 1 F clk $end
$var wire 1 G RCO164 $end
$var wire 1 H RCO163 $end
$var wire 1 I RCO162 $end
$var wire 1 J RCO $end
$var wire 16 K Q [15:0] $end
$var wire 16 L D [15:0] $end
$scope module DUT16 $end
$var wire 1 M clk2 $end
$var wire 1 N clk3 $end
$var wire 1 O clk4 $end
$var wire 16 P salida [15:0] $end
$var wire 1 Q modo114 $end
$var wire 1 R modo113 $end
$var wire 1 S modo11 $end
$var wire 1 T modo00 $end
$var wire 16 U entrada [15:0] $end
$var wire 1 G RCO164 $end
$var wire 1 H RCO163 $end
$var wire 1 I RCO162 $end
$var wire 1 J RCO $end
$var wire 2 V MODO [1:0] $end
$var wire 1 E ENB $end
$var wire 1 F CLK $end
$var reg 1 W d_Out2 $end
$var reg 1 X d_Out3 $end
$scope module contador1 $end
$var wire 4 Y D [3:0] $end
$var wire 1 J RCO $end
$var wire 4 Z Q [3:0] $end
$var wire 2 [ MODO [1:0] $end
$var wire 1 E ENB $end
$var wire 1 F CLK $end
$var reg 4 \ d_In [3:0] $end
$var reg 1 ] d_Out $end
$scope module DFF_0 $end
$var wire 1 ^ D $end
$var wire 1 E EN $end
$var wire 1 F CLK $end
$var reg 1 _ Q $end
$upscope $end
$scope module DFF_1 $end
$var wire 1 ` D $end
$var wire 1 E EN $end
$var wire 1 F CLK $end
$var reg 1 a Q $end
$upscope $end
$scope module DFF_1bit $end
$var wire 1 ] D $end
$var wire 1 E EN $end
$var wire 1 F CLK $end
$var reg 1 J Q $end
$upscope $end
$scope module DFF_2 $end
$var wire 1 b D $end
$var wire 1 E EN $end
$var wire 1 F CLK $end
$var reg 1 c Q $end
$upscope $end
$scope module DFF_3 $end
$var wire 1 d D $end
$var wire 1 E EN $end
$var wire 1 F CLK $end
$var reg 1 e Q $end
$upscope $end
$upscope $end
$scope module contador2 $end
$var wire 1 M CLK $end
$var wire 4 f D [3:0] $end
$var wire 1 I RCO $end
$var wire 4 g Q [3:0] $end
$var wire 2 h MODO [1:0] $end
$var wire 1 E ENB $end
$var reg 4 i d_In [3:0] $end
$var reg 1 j d_Out $end
$scope module DFF_0 $end
$var wire 1 M CLK $end
$var wire 1 k D $end
$var wire 1 E EN $end
$var reg 1 l Q $end
$upscope $end
$scope module DFF_1 $end
$var wire 1 M CLK $end
$var wire 1 m D $end
$var wire 1 E EN $end
$var reg 1 n Q $end
$upscope $end
$scope module DFF_1bit $end
$var wire 1 M CLK $end
$var wire 1 j D $end
$var wire 1 E EN $end
$var reg 1 I Q $end
$upscope $end
$scope module DFF_2 $end
$var wire 1 M CLK $end
$var wire 1 o D $end
$var wire 1 E EN $end
$var reg 1 p Q $end
$upscope $end
$scope module DFF_3 $end
$var wire 1 M CLK $end
$var wire 1 q D $end
$var wire 1 E EN $end
$var reg 1 r Q $end
$upscope $end
$upscope $end
$scope module contador3 $end
$var wire 1 N CLK $end
$var wire 4 s D [3:0] $end
$var wire 1 H RCO $end
$var wire 4 t Q [3:0] $end
$var wire 2 u MODO [1:0] $end
$var wire 1 E ENB $end
$var reg 4 v d_In [3:0] $end
$var reg 1 w d_Out $end
$scope module DFF_0 $end
$var wire 1 N CLK $end
$var wire 1 x D $end
$var wire 1 E EN $end
$var reg 1 y Q $end
$upscope $end
$scope module DFF_1 $end
$var wire 1 N CLK $end
$var wire 1 z D $end
$var wire 1 E EN $end
$var reg 1 { Q $end
$upscope $end
$scope module DFF_1bit $end
$var wire 1 N CLK $end
$var wire 1 w D $end
$var wire 1 E EN $end
$var reg 1 H Q $end
$upscope $end
$scope module DFF_2 $end
$var wire 1 N CLK $end
$var wire 1 | D $end
$var wire 1 E EN $end
$var reg 1 } Q $end
$upscope $end
$scope module DFF_3 $end
$var wire 1 N CLK $end
$var wire 1 ~ D $end
$var wire 1 E EN $end
$var reg 1 !" Q $end
$upscope $end
$upscope $end
$scope module contador4 $end
$var wire 1 O CLK $end
$var wire 4 "" D [3:0] $end
$var wire 1 G RCO $end
$var wire 4 #" Q [3:0] $end
$var wire 2 $" MODO [1:0] $end
$var wire 1 E ENB $end
$var reg 4 %" d_In [3:0] $end
$var reg 1 &" d_Out $end
$scope module DFF_0 $end
$var wire 1 O CLK $end
$var wire 1 '" D $end
$var wire 1 E EN $end
$var reg 1 (" Q $end
$upscope $end
$scope module DFF_1 $end
$var wire 1 O CLK $end
$var wire 1 )" D $end
$var wire 1 E EN $end
$var reg 1 *" Q $end
$upscope $end
$scope module DFF_1bit $end
$var wire 1 O CLK $end
$var wire 1 &" D $end
$var wire 1 E EN $end
$var reg 1 G Q $end
$upscope $end
$scope module DFF_2 $end
$var wire 1 O CLK $end
$var wire 1 +" D $end
$var wire 1 E EN $end
$var reg 1 ," Q $end
$upscope $end
$scope module DFF_3 $end
$var wire 1 O CLK $end
$var wire 1 -" D $end
$var wire 1 E EN $end
$var reg 1 ." Q $end
$upscope $end
$upscope $end
$upscope $end
$scope module test16 $end
$var wire 1 J RCO $end
$var wire 1 I RCO162 $end
$var wire 1 H RCO163 $end
$var wire 1 G RCO164 $end
$var wire 16 /" salida [15:0] $end
$var reg 1 F CLK $end
$var reg 1 E ENB $end
$var reg 2 0" MODO [1:0] $end
$var reg 16 1" entrada [15:0] $end
$upscope $end
$upscope $end
$enddefinitions $end
#0
$dumpvars
b0 1"
b11 0"
bx /"
x."
0-"
x,"
0+"
x*"
0)"
x("
0'"
0&"
b0 %"
b11 $"
bx #"
b0 ""
x!"
0~
x}
0|
x{
0z
xy
0x
0w
b0 v
b11 u
bx t
b0 s
xr
0q
xp
0o
xn
0m
xl
0k
0j
b0 i
b11 h
bx g
b0 f
xe
0d
xc
0b
xa
0`
x_
0^
0]
b0 \
b11 [
bx Z
b0 Y
xX
xW
b11 V
b0 U
0T
1S
1R
1Q
bx P
0O
0N
0M
b0 L
bx K
xJ
xI
xH
xG
0F
1E
b11 D
bx C
bx B
bx A
x@
0?
x>
0=
x<
0;
x:
09
x8
b0 7
bx 6
bx 5
bx 4
bx 3
bx 2
x1
00
x/
bx .
x-
z,
x+
z*
z)
x(
z'
z&
x%
z$
z#
x"
z!
$end
#1
z"
#5
0("
0*"
0,"
b0 #"
0."
0G
0y
0{
0}
b0 t
0!"
0H
0l
0n
0p
b0 g
0r
0I
0_
0a
0c
b0 K
b0 P
b0 /"
b0 Z
0e
0J
1O
1N
1M
1F
10
#10
0O
0N
1^
1k
1x
1'"
0M
0W
0X
b1 \
b1 i
b1 v
b1 %"
0Q
0R
1T
0S
b0 D
b0 V
b0 [
b0 h
b0 u
b0 $"
b0 0"
0F
00
#15
0^
1`
b10 \
b1 K
b1 P
b1 /"
b1 Z
1_
1F
10
#20
0F
00
#25
1^
b11 \
0_
b10 K
b10 P
b10 /"
b10 Z
1a
1F
10
#30
0F
00
#35
0^
0`
1b
b100 \
b11 K
b11 P
b11 /"
b11 Z
1_
1F
10
#40
0F
00
#45
1^
b101 \
0_
0a
b100 K
b100 P
b100 /"
b100 Z
1c
1F
10
#50
0F
00
#55
0^
1`
b110 \
b101 K
b101 P
b101 /"
b101 Z
1_
1F
10
#60
0F
00
#65
1^
b111 \
0_
b110 K
b110 P
b110 /"
b110 Z
1a
1F
10
#70
0F
00
#75
0^
0`
0b
1d
b1000 \
b111 K
b111 P
b111 /"
b111 Z
1_
1F
10
#80
0F
00
#85
1^
b1001 \
0_
0a
0c
b1000 K
b1000 P
b1000 /"
b1000 Z
1e
1F
10
#90
0F
00
#95
0^
1`
b1010 \
b1001 K
b1001 P
b1001 /"
b1001 Z
1_
1F
10
#100
0F
00
#105
1^
b1011 \
0_
b1010 K
b1010 P
b1010 /"
b1010 Z
1a
1F
10
#110
0F
00
#115
0^
0`
1b
b1100 \
b1011 K
b1011 P
b1011 /"
b1011 Z
1_
1F
10
#120
0F
00
#125
1^
b1101 \
0_
0a
b1100 K
b1100 P
b1100 /"
b1100 Z
1c
1F
10
#130
0F
00
#135
0^
1`
b1110 \
b1101 K
b1101 P
b1101 /"
b1101 Z
1_
1F
10
#140
0F
00
#145
1^
b1111 \
0_
b1110 K
b1110 P
b1110 /"
b1110 Z
1a
1F
10
#150
0F
00
#155
0^
0`
0b
0d
1]
b0 \
b1111 K
b1111 P
b1111 /"
b1111 Z
1_
1F
10
#160
0F
00
#165
0k
1m
b10 i
b1 g
1l
1^
1M
b1 \
0]
0_
0a
0c
b10000 K
b10000 P
b10000 /"
b0 Z
0e
1J
1F
10
#170
1&"
1."
1,"
1*"
b1111000000010000 K
b1111000000010000 P
b1111000000010000 /"
b1111 #"
1("
0O
1)"
1+"
1-"
1z
1|
1~
1k
1o
1q
1`
1b
1d
0N
0M
1^
1m
1x
1'"
b1111 ""
b1111 s
b1111 f
b1111 Y
b1111 \
b1111 i
b1111 v
b1111 %"
b1111111111111111 L
b1111111111111111 U
b1111111111111111 1"
1Q
1R
0T
1S
b11 D
b11 V
b11 [
b11 h
b11 u
b11 $"
b11 0"
0F
00
#175
1w
1j
1]
1G
1y
1{
1}
b1111 t
1!"
1n
1p
b1111 g
1r
0J
1e
1c
1a
b1111111111111111 K
b1111111111111111 P
b1111111111111111 /"
b1111 Z
1_
1O
1N
1M
1F
10
#180
0O
0N
0^
0k
0x
0'"
0M
b1110 \
0]
b1110 i
0j
b1110 v
0w
b1110 %"
0&"
0Q
0R
0S
b1 D
b1 V
b1 [
b1 h
b1 u
b1 $"
b1 0"
0F
00
#185
1^
0`
b1101 \
b1111111111111110 K
b1111111111111110 P
b1111111111111110 /"
b1110 Z
0_
1F
10
#190
0F
00
#195
0^
b1100 \
0a
b1111111111111101 K
b1111111111111101 P
b1111111111111101 /"
b1101 Z
1_
1F
10
#200
0F
00
#205
1^
1`
0b
b1011 \
b1111111111111100 K
b1111111111111100 P
b1111111111111100 /"
b1100 Z
0_
1F
10
#210
0F
00
#215
0^
b1010 \
0c
1a
b1111111111111011 K
b1111111111111011 P
b1111111111111011 /"
b1011 Z
1_
1F
10
#220
0F
00
#225
1^
0`
b1001 \
b1111111111111010 K
b1111111111111010 P
b1111111111111010 /"
b1010 Z
0_
1F
10
#230
0F
00
#235
0^
b1000 \
0a
b1111111111111001 K
b1111111111111001 P
b1111111111111001 /"
b1001 Z
1_
1F
10
#240
0F
00
#245
1^
1`
1b
0d
b111 \
b1111111111111000 K
b1111111111111000 P
b1111111111111000 /"
b1000 Z
0_
1F
10
#250
0F
00
#255
0^
b110 \
0e
1c
1a
b1111111111110111 K
b1111111111110111 P
b1111111111110111 /"
b111 Z
1_
1F
10
#260
0F
00
#265
1^
0`
b101 \
b1111111111110110 K
b1111111111110110 P
b1111111111110110 /"
b110 Z
0_
1F
10
#270
0F
00
#275
0^
b100 \
0a
b1111111111110101 K
b1111111111110101 P
b1111111111110101 /"
b101 Z
1_
1F
10
#280
0F
00
#285
1^
1`
0b
b11 \
b1111111111110100 K
b1111111111110100 P
b1111111111110100 /"
b100 Z
0_
1F
10
#290
0F
00
#295
0^
b10 \
0c
1a
b1111111111110011 K
b1111111111110011 P
b1111111111110011 /"
b11 Z
1_
1F
10
#300
0F
00
#305
1^
0`
b1 \
b1111111111110010 K
b1111111111110010 P
b1111111111110010 /"
b10 Z
0_
1F
10
#310
0F
00
#315
0^
b0 \
0a
b1111111111110001 K
b1111111111110001 P
b1111111111110001 /"
b1 Z
1_
1F
10
#320
0F
00
#325
1^
1`
1b
1d
1]
b1111 \
b1111111111110000 K
b1111111111110000 P
b1111111111110000 /"
b0 Z
0_
1F
10
#330
0F
00
#335
1k
0m
b1101 i
b1110 g
0l
1M
0^
b1110 \
0]
1J
1e
1c
1a
b1111111111101111 K
b1111111111101111 P
b1111111111101111 /"
b1111 Z
1_
1F
10
#340
0F
00
#345
1^
0`
0M
b1101 \
b1111111111101110 K
b1111111111101110 P
b1111111111101110 /"
b1110 Z
0_
0J
1F
10
#350
1`
1m
1x
1'"
b1111 \
b1111 i
1w
b1111 v
1&"
b1111 %"
1Q
1R
1S
b11 D
b11 V
b11 [
b11 h
b11 u
b11 $"
b11 0"
0F
00
#355
1j
1]
1H
b1111 g
1l
b1111111111111111 K
b1111111111111111 P
b1111111111111111 /"
b1111 Z
1_
1O
1N
1M
1F
10
#360
0N
0^
0`
0k
0m
0x
0z
0'"
0)"
0M
b1100 \
0]
b1100 i
0j
b1100 v
0w
b1100 %"
0&"
0Q
0R
0S
b10 D
b10 V
b10 [
b10 h
b10 u
b10 $"
b10 0"
0F
00
#365
1^
0b
b1001 \
0_
b1111111111111100 K
b1111111111111100 P
b1111111111111100 /"
b1100 Z
0a
1F
10
#370
0F
00
#375
0^
1`
1b
0d
b110 \
0c
b1111111111111001 K
b1111111111111001 P
b1111111111111001 /"
b1001 Z
1_
1F
10
#380
0F
00
#385
1^
0b
b11 \
0_
1a
1c
b1111111111110110 K
b1111111111110110 P
b1111111111110110 /"
b110 Z
0e
1F
10
#390
0F
00
#395
0^
0`
b0 \
0c
b1111111111110011 K
b1111111111110011 P
b1111111111110011 /"
b11 Z
1_
1F
10
#400
0F
00
#405
1^
1b
1d
1]
b1101 \
0_
b1111111111110000 K
b1111111111110000 P
b1111111111110000 /"
b0 Z
0a
1F
10
#410
0F
00
#415
1k
0o
b1001 i
0n
b1100 g
0l
1M
0^
1`
0b
b1010 \
0]
1J
1e
1c
b1111111111001101 K
b1111111111001101 P
b1111111111001101 /"
b1101 Z
1_
1F
10
#420
0F
00
#425
1^
1b
0d
0M
b111 \
0_
1a
b1111111111001010 K
b1111111111001010 P
b1111111111001010 /"
b1010 Z
0c
0J
1F
10
#430
0F
00
#435
0^
0`
b100 \
0e
1c
b1111111111000111 K
b1111111111000111 P
b1111111111000111 /"
b111 Z
1_
1F
10
#440
0F
00
#445
1^
0b
b1 \
0_
b1111111111000100 K
b1111111111000100 P
b1111111111000100 /"
b100 Z
0a
1F
10
#450
0F
00
#455
0^
1`
1b
1d
1]
b1110 \
0c
b1111111111000001 K
b1111111111000001 P
b1111111111000001 /"
b1 Z
1_
1F
10
#460
0F
00
#465
0k
1m
1o
0q
b110 i
1l
b1001 g
0p
1^
0b
1M
b1011 \
0]
0_
1a
1c
b1111111110011110 K
b1111111110011110 P
b1111111110011110 /"
b1110 Z
1e
1J
1F
10
#470
x("
x*"
x,"
bx111110011110 K
bx111110011110 P
bx111110011110 /"
bx #"
x."
x+"
x-"
x|
x~
xm
xo
x^
x`
xd
0O
0N
0M
xb
xk
xq
xx
xz
x'"
x)"
bx ""
bx s
bx f
bx Y
bx \
bx i
1w
bx v
0&"
bx %"
bx L
bx U
bx 1"
1Q
1R
1S
b11 D
b11 V
b11 [
b11 h
b11 u
b11 $"
b11 0"
0F
00
#475
0w
0G
x!"
x}
x{
bx t
xy
xr
xp
xn
bx g
xl
0J
xe
xc
xa
bx K
bx P
bx /"
bx Z
x_
1O
1N
1M
1F
10
#480
0O
0N
0'"
0)"
0+"
0-"
0x
0z
0|
0~
0k
0m
0o
0q
0^
0`
0b
0d
b0 %"
b0 v
b0 i
b0 \
0M
b0 ""
b0 s
b0 f
b0 Y
b0 L
b0 U
b0 1"
0F
00
#485
0("
0*"
0,"
b0 #"
0."
0y
0{
0}
b0 t
0!"
0H
0l
0n
0p
b0 g
0r
0_
0a
0c
b0 K
b0 P
b0 /"
b0 Z
0e
1O
1N
1M
1F
10
#490
0O
0N
1^
b1 \
0M
b1 Y
b1 L
b1 U
b1 1"
0F
00
#495
b1 K
b1 P
b1 /"
b1 Z
1_
1O
1N
1M
1F
10
#500
0O
0N
0^
1`
b10 \
0M
b10 Y
b10 L
b10 U
b10 1"
0F
00
#505
0_
b10 K
b10 P
b10 /"
b10 Z
1a
1O
1N
1M
1F
10
#510
0O
0N
1^
b11 \
0M
b11 Y
b11 L
b11 U
b11 1"
0F
00
#515
b11 K
b11 P
b11 /"
b11 Z
1_
1O
1N
1M
1F
10
#520
0O
0N
0^
0`
1b
b100 \
0M
b100 Y
b100 L
b100 U
b100 1"
0F
00
#525
0_
0a
b100 K
b100 P
b100 /"
b100 Z
1c
1O
1N
1M
1F
10
#530
0O
0N
1^
b101 \
0M
b101 Y
b101 L
b101 U
b101 1"
0F
00
#535
b101 K
b101 P
b101 /"
b101 Z
1_
1O
1N
1M
1F
10
#540
0O
0N
0^
1`
b110 \
0M
b110 Y
b110 L
b110 U
b110 1"
0F
00
#545
0_
b110 K
b110 P
b110 /"
b110 Z
1a
1O
1N
1M
1F
10
#550
0O
0N
1^
b111 \
0M
b111 Y
b111 L
b111 U
b111 1"
0F
00
#555
b111 K
b111 P
b111 /"
b111 Z
1_
1O
1N
1M
1F
10
#560
0O
0N
0^
0`
0b
1d
b1000 \
0M
b1000 Y
b1000 L
b1000 U
b1000 1"
0F
00
#565
0_
0a
0c
b1000 K
b1000 P
b1000 /"
b1000 Z
1e
1O
1N
1M
1F
10
#570
0O
0N
1^
b1001 \
0M
b1001 Y
b1001 L
b1001 U
b1001 1"
0F
00
#575
b1001 K
b1001 P
b1001 /"
b1001 Z
1_
1O
1N
1M
1F
10
#580
0O
0N
0^
1`
b1010 \
0M
b1010 Y
b1010 L
b1010 U
b1010 1"
0F
00
#585
0_
b1010 K
b1010 P
b1010 /"
b1010 Z
1a
1O
1N
1M
1F
10
#590
0O
0N
1^
b1011 \
0M
b1011 Y
b1011 L
b1011 U
b1011 1"
0F
00
#595
b1011 K
b1011 P
b1011 /"
b1011 Z
1_
1O
1N
1M
1F
10
#600
0O
0N
0^
0`
1b
b1100 \
0M
b1100 Y
b1100 L
b1100 U
b1100 1"
0F
00
#605
0_
0a
b1100 K
b1100 P
b1100 /"
b1100 Z
1c
1O
1N
1M
1F
10
#610
0O
0N
1^
b1101 \
0M
b1101 Y
b1101 L
b1101 U
b1101 1"
0F
00
#615
b1101 K
b1101 P
b1101 /"
b1101 Z
1_
1O
1N
1M
1F
10
#620
0O
0N
0^
1`
b1110 \
0M
b1110 Y
b1110 L
b1110 U
b1110 1"
0F
00
#625
0_
b1110 K
b1110 P
b1110 /"
b1110 Z
1a
1O
1N
1M
1F
10
#630
0O
0N
1^
b1111 \
0M
b1111 Y
b1111 L
b1111 U
b1111 1"
0F
00
#635
1]
b1111 K
b1111 P
b1111 /"
b1111 Z
1_
1O
1N
1M
1F
10
#640
0O
0N
x'"
x)"
x+"
x-"
xx
xz
x|
x~
xk
xm
xo
xq
x^
x`
xb
xd
bx %"
bx v
bx i
bx \
1]
0M
bx ""
bx s
bx f
bx Y
0E
bx L
bx U
bx 1"
0F
00
